Mixed Models
…
---
class: inverse 

# Getting Started: Application

These are the random effects for students:

```r
# lme4::ranef(gpa_mixed)
mixedup::extract_random_effects(gpa_mixed)
```

```
# A tibble: 200 x 7
   group_var effect    group  value    se lower_2.5 upper_97.5
   <chr>     <chr>     <fct>  <dbl> <dbl>     <dbl>      <dbl>
 1 student   Intercept 1     -0.071 0.092    -0.251      0.109
 2 student   Intercept 2     -0.216 0.092    -0.395     -0.036
 3 student   Intercept 3      0.088 0.092    -0.091      0.268
 4 student   Intercept 4     -0.187 0.092    -0.366     -0.007
 5 student   Intercept 5      0.03  0.092    -0.149      0.21 
 6 student   Intercept 6     -0.302 0.092    -0.482     -0.123
 7 student   Intercept 7     -0.143 0.092    -0.323      0.036
 8 student   Intercept 8      0.218 0.092     0.039      0.398
 9 student   Intercept 9      0.103 0.092    -0.077      0.282
10 student   Intercept 10     0.016 0.092    -0.164      0.196
# … with 190 more rows
```
…
# Getting Started: Application

These are the random coefficients:
- In this case, intercepts
- coef = intercept + effect

```r
# coef(gpa_mixed)
mixedup::extract_random_coefs(gpa_mixed)
```

```
# A tibble: 200 x 7
   group_var effect    group value    se lower_2.5 upper_97.5
   <chr>     <chr>     <fct> <dbl> <dbl>     <dbl>      <dbl>
 1 student   Intercept 1      2.53 0.095      2.34       2.71
 2 student   Intercept 2      2.38 0.095      2.20       2.57
 3 student   Intercept 3      2.69 0.095      2.50       2.87
 4 student   Intercept 4      2.41 0.095      2.23       2.60
 5 student   Intercept 5      2.63 0.095      2.44       2.81
 6 student   Intercept 6      2.30 0.095      2.11       2.48
 7 student   Intercept 7      2.46 0.095      2.27       2.64
 8 student   Intercept 8      2.82 0.095      2.63       3.00
 9 student   Intercept 9      2.70 0.095      2.52       2.89
10 student   Intercept 10     2.62 0.095      2.43       2.8 
# … with 190 more rows
```
…
